<?xml version="1.0" ?><svg id="Layer_1" style="enable-background:new 0 0 128 128;" version="1.1" viewBox="0 0 128 128" xml:space="preserve" xmlns="http://www.w3.org/2000/svg" xmlns:xlink="http://www.w3.org/1999/xlink"><style type="text/css">
	.st0{opacity:0.3;fill-rule:evenodd;clip-rule:evenodd;fill:url(#SVGID_1_);}
	.st1{fill-rule:evenodd;clip-rule:evenodd;fill:url(#SVGID_2_);}
	.st2{opacity:0.6;fill-rule:evenodd;clip-rule:evenodd;fill:#FFFFFF;}
	.st3{fill-rule:evenodd;clip-rule:evenodd;fill:url(#SVGID_3_);}
	.st4{fill-rule:evenodd;clip-rule:evenodd;fill:url(#SVGID_4_);}
</style><radialGradient cx="63.9997" cy="118.0887" gradientTransform="matrix(1 0 0 0.3 0 82.6621)" gradientUnits="userSpaceOnUse" id="SVGID_1_" r="30.2251"><stop offset="0" style="stop-color:#414042"/><stop offset="0.7923" style="stop-color:#0E0E0E;stop-opacity:0.2077"/><stop offset="1" style="stop-color:#000000;stop-opacity:0"/></radialGradient><path class="st0" d="M105.6,124c0,4.4-18.6,4-41.6,4c-23,0-41.6,0.4-41.6-4c0-4.4,18.6-15.8,41.6-15.8  C87,108.2,105.6,119.6,105.6,124z"/><g><linearGradient gradientUnits="userSpaceOnUse" id="SVGID_2_" x1="100.4503" x2="27.5449" y1="93.0876" y2="14.9062"><stop offset="0" style="stop-color:#000002"/><stop offset="0.5" style="stop-color:#343333"/><stop offset="1" style="stop-color:#343333"/></linearGradient><path class="st1" d="M11.2,51.3L61.3,1.2c1.5-1.5,3.9-1.5,5.4,0l50.1,50.1c1.5,1.5,1.5,3.9,0,5.4l-50.1,50.1   c-1.5,1.5-3.9,1.5-5.4,0L11.2,56.7C9.7,55.2,9.7,52.8,11.2,51.3z"/><path class="st2" d="M11.6,51.7L61.7,1.6c1.3-1.3,3.3-1.3,4.6,0l50.1,50.1c1.3,1.3,1.3,3.3,0,4.6l-50.1,50.1   c-1.3,1.3-3.3,1.3-4.6,0L11.6,56.3C10.4,55,10.4,53,11.6,51.7L11.6,51.7z M12,52.2c-1,1-1,2.7,0,3.7L62.2,106c1,1,2.7,1,3.7,0   L116,55.8c1-1,1-2.7,0-3.7L65.8,2c-1-1-2.7-1-3.7,0L12,52.2z"/><linearGradient gradientUnits="userSpaceOnUse" id="SVGID_3_" x1="38.3981" x2="89.6077" y1="62.3189" y2="45.6799"><stop offset="0" style="stop-color:#231F20"/><stop offset="1" style="stop-color:#231F20"/></linearGradient><path class="st3" d="M42,74.4l0-41l0,0c0-0.4,0.2-0.7,0.5-1l0,0c0.3-0.3,0.6-0.4,1-0.5l0.1,0l41,0l0,0c0.4,0,0.7,0.2,1,0.5l0,0   c0.3,0.3,0.4,0.6,0.5,1l0,0.1l0,41l0,0c0,0.4-0.2,0.7-0.5,1l0,0c-0.3,0.3-0.6,0.4-1,0.5l-0.1,0l-41,0h0c-0.4,0-0.7-0.2-1-0.5l0,0   c-0.3-0.3-0.4-0.6-0.5-1L42,74.4z"/><linearGradient gradientUnits="userSpaceOnUse" id="SVGID_4_" x1="35.0813" x2="92.9241" y1="63.3962" y2="44.6019"><stop offset="0" style="stop-color:#E5E6E5"/><stop offset="1" style="stop-color:#FFFFFF"/></linearGradient><path class="st4" d="M42.6,74.4L42.6,74.4L42.6,74.4L42.6,74.4L42.6,74.4L42.6,74.4L42.6,74.4L42.6,74.4L42.6,74.4L42.6,74.4   c0,0.3,0.1,0.5,0.3,0.7l0,0l0,0l0,0c0.2,0.2,0.4,0.3,0.6,0.3l0,0h0h0l0,0l0,0h0h0h0h0h40.8h0h0h0h0l0,0l0,0h0h0l0,0   c0.2,0,0.5-0.1,0.6-0.3l0,0l0,0l0,0c0.2-0.2,0.3-0.4,0.3-0.6l0,0v0l0,0v0v0v0v0l0,0v0V33.6v0l0,0v0v0v0v0l0,0v0l0,0   c0-0.2-0.1-0.5-0.3-0.6l0,0l0,0l0,0c-0.2-0.2-0.4-0.3-0.6-0.3l0,0h0l0,0l0,0h0l0,0h0l0,0h0H43.6h0l0,0h0l0,0h0l0,0l0,0h0l0,0   c-0.2,0-0.5,0.1-0.6,0.3l0,0l0,0l0,0c-0.2,0.2-0.3,0.4-0.3,0.6l0,0v0l0,0v0v0l0,0v0v0v0V74.4z"/></g></svg>